…
``` r
merged_nhanes = demographic_data |>
  left_join(accelerometer_data, by= join_by(seqn)) |>
  relocate(seqn, sex, age, bmi, education) |>
  filter(age>20)
```

We can use this code chunk to examine our datasets:

``` r
demographic_data
```

    ## # A tibble: 229 × 5
    ##     seqn sex      age   bmi education             
    ##    <dbl> <chr>  <dbl> <dbl> <fct>                 
    ##  1 62161 male      22  23.3 high school equivalent
    ##  2 62164 female    44  23.2 more than high school 
    ##  3 62169 male      21  20.1 high school equivalent
    ##  4 62174 male      80  33.9 more than high school 
    ##  5 62177 male      51  20.1 high school equivalent
    ##  6 62178 male      80  28.5 high school equivalent
    ##  7 62180 male      35  27.9 more than high school 
    ##  8 62184 male      26  22.1 high school equivalent
    ##  9 62189 female    30  22.4 more than high school 
    ## 10 62199 male      57  28   more than high school 
    ## # ℹ 219 more rows

``` r
view(demographic_data)

accelerometer_data
```

    ## # A tibble: 360,000 × 3
    ##     seqn minute  MIMS
    ##    <dbl>  <dbl> <dbl>
    ##  1 62161      1 1.11 
    ##  2 62161      2 3.12 
    ##  3 62161      3 1.47 
    ##  4 62161      4 0.938
    ##  5 62161      5 1.60 
    ##  6 62161      6 0.145
    ##  7 62161      7 2.10 
    ##  8 62161      8 0.509
    ##  9 62161      9 1.63 
    ## 10 62161     10 1.20 
    ## # ℹ 359,990 more rows
…
